{
  "categories": {
    "href": "https://api.spotify.com/v1/browse/categories?offset=0&limit=20",
    "items": [
      {
        "href": "https://api.spotify.com/v1/browse/categories/toplists",
        "icons": [
          {
            "height": 275,
            "url": "https://t.scdn.co/media/derived/toplists_11160599e6a04ac5d6f2757f5511778f_0_0_275_275.jpg",
            "width": 275
          }                                     
        ],
        "id": "toplists",
        "name": "Top Lists"
      },
      {
        "href": "https://api.spotify.com/v1/browse/categories/pop",
        "icons": [
          {
            "height": 274,
            "url": "https://t.scdn.co/media/derived/pop-274x274_447148649685019f5e2a03a39e78ba52_0_0_274_274.jpg",
            "width": 274
          }
        ],
        "id": "pop",
        "name": "Pop"
      },
      {
        "href": "https://api.spotify.com/v1/browse/categories/bollywood",
        "icons": [
          {
            "height": null,
            "url": "https://t.scdn.co/images/8a0fabf4d537486e9b5a4623c921f77e.jpeg",
            "width": null
          }
        ],
        "id": "bollywood",
        "name": "Bollywood"
      },
      {
        "href": "https://api.spotify.com/v1/browse/categories/romance",
        "icons": [
          {
            "height": 274,
            "url": "https://t.scdn.co/media/derived/romance-274x274_8100794c94847b6d27858bed6fa4d91b_0_0_274_274.jpg",
            "width": 274
          }
        ],
        "id": "romance",
        "name": "Romance"
      },
      {
        "href": "https://api.spotify.com/v1/browse/categories/punjabi",
        "icons": [
          {
            "height": null,
            "url": "https://t.scdn.co/images/11e89d14d7844b7eb3d26619cb662a9b.jpeg",
            "width": null
          }
        ],
        "id": "punjabi",
        "name": "Punjabi"
      },
      {
        "href": "https://api.spotify.com/v1/browse/categories/party",
        "icons": [
          {
            "height": 274,
            "url": "https://t.scdn.co/media/links/partyicon_274x274.jpg",
            "width": 274
          }
        ],
        "id": "party",
        "name": "Party"
      },
      {
        "href": "https://api.spotify.com/v1/browse/categories/tamil",
        "icons": [
          {
            "height": null,
            "url": "https://t.scdn.co/images/2117dadfdd254825b3fbc52e3652ed56.jpeg",
            "width": null
          }
        ],
        "id": "tamil",
        "name": "Tamil"
      },
      {
        "href": "https://api.spotify.com/v1/browse/categories/edm_dance",
        "icons": [
          {
            "height": 274,
            "url": "https://t.scdn.co/media/derived/edm-274x274_0ef612604200a9c14995432994455a6d_0_0_274_274.jpg",
            "width": 274
          }
        ],
        "id": "edm_dance",
        "name": "Electronic/Dance"
      },
      {
        "href": "https://api.spotify.com/v1/browse/categories/telugu",
        "icons": [
          {
            "height": null,
            "url": "https://t.scdn.co/images/96b5132876eb4e818723555ce365cd87.jpeg",
            "width": null
          }
        ],
        "id": "telugu",
        "name": "Telugu"
      },
      {
        "href": "https://api.spotify.com/v1/browse/categories/hiphop",
        "icons": [
          {
            "height": 274,
            "url": "https://t.scdn.co/media/original/hip-274_0a661854d61e29eace5fe63f73495e68_274x274.jpg",
            "width": 274
          }
        ],
        "id": "hiphop",
        "name": "Hip-Hop"
      },
      {
        "href": "https://api.spotify.com/v1/browse/categories/wellness",
        "icons": [
          {
            "height": null,
            "url": "https://t.scdn.co/images/2adf91e7179a4e098834d630c74824b1.jpeg",
            "width": null
          }
        ],
        "id": "wellness",
        "name": "Wellness"
      },
      {
        "href": "https://api.spotify.com/v1/browse/categories/rnb",
        "icons": [
          {
            "height": 274,
            "url": "https://t.scdn.co/media/derived/r-b-274x274_fd56efa72f4f63764b011b68121581d8_0_0_274_274.jpg",
            "width": 274
          }
        ],
        "id": "rnb",
        "name": "R&B"
      },
      {
        "href": "https://api.spotify.com/v1/browse/categories/thirdparty",
        "icons": [
          {
            "height": null,
            "url": "https://t.scdn.co/images/b4182906bf244b4994805084c057e9ee.jpeg",
            "width": null
          }
        ],
        "id": "thirdparty",
        "name": "Tastemakers"
      },
      {
        "href": "https://api.spotify.com/v1/browse/categories/rock",
        "icons": [
          {
            "height": 274,
            "url": "https://t.scdn.co/media/derived/rock_9ce79e0a4ef901bbd10494f5b855d3cc_0_0_274_274.jpg",
            "width": 274
          }
        ],
        "id": "rock",
        "name": "Rock"
      },
      {
        "href": "https://api.spotify.com/v1/browse/categories/kpop",
        "icons": [
          {
            "height": null,
            "url": "https://t.scdn.co/images/69c728f3bd9643a5ab0f4ef5a79919f1.jpeg",
            "width": null
          }
        ],
        "id": "kpop",
        "name": "K-Pop"
      },
      {
        "href": "https://api.spotify.com/v1/browse/categories/indie_alt",
        "icons": [
          {
            "height": null,
            "url": "https://t.scdn.co/images/fe06caf056474bc58862591cd60b57fc.jpeg",
            "width": null
          }
        ],
        "id": "indie_alt",
        "name": "Indie"
      },
      {
        "href": "https://api.spotify.com/v1/browse/categories/reggae",
        "icons": [
          {
            "height": 274,
            "url": "https://t.scdn.co/media/derived/reggae-274x274_2f11a0500528532b3bc580e3428e9610_0_0_274_274.jpg",
            "width": 274
          }
        ],
        "id": "reggae",
        "name": "Reggae"
      },
      {
        "href": "https://api.spotify.com/v1/browse/categories/mood",
        "icons": [
          {
            "height": 274,
            "url": "https://t.scdn.co/media/original/mood-274x274_976986a31ac8c49794cbdc7246fd5ad7_274x274.jpg",
            "width": 274
          }
        ],
        "id": "mood",
        "name": "Mood"
      },
      {
        "href": "https://api.spotify.com/v1/browse/categories/workout",
        "icons": [
          {
            "height": null,
            "url": "https://t.scdn.co/media/links/workout-274x274.jpg",
            "width": null
          }
        ],
        "id": "workout",
        "name": "Workout"
      },
      {
        "href": "https://api.spotify.com/v1/browse/categories/chill",
        "icons": [
          {
            "height": 274,
            "url": "https://t.scdn.co/media/derived/chill-274x274_4c46374f007813dd10b37e8d8fd35b4b_0_0_274_274.jpg",
            "width": 274
          }
        ],
        "id": "chill",
        "name": "Chill"
      }
    ],
    "limit": 20,
    "next": "https://api.spotify.com/v1/browse/categories?offset=20&limit=20",
    "offset": 0,
    "previous": null,
    "total": 40
  }
}
